com\mag\annonce\dto\UserDto.class
com\mag\annonce\controller\AnnonceController.class
com\mag\annonce\controller\TokenController.class
com\mag\annonce\service\AnnonceServiceImpl.class
com\mag\annonce\service\IAnnonceService.class
com\mag\annonce\dto\AdresseDto.class
com\mag\annonce\dto\AnnonceDto.class
com\mag\annonce\entity\Annonce.class
com\mag\annonce\entity\TypeAnnonce.class
com\mag\annonce\entity\Adresse.class
META-INF\panache-archive.marker
com\mag\annonce\entity\User.class
com\mag\annonce\ExampleResource.class
